Chapter 6 Data Management | R Bootcamp - How to use R for Data Science
…
We will use the same data set, Ames Housing Price data, containing 165 observations and 12 features including the sale date and price. Suppose we want to find the houses that are sold in Jan 2010. You can use the function filter() in the dplyr package, a member of the tidyverse package.

See more about dplyr here

library(AmesHousing)
amesdata <- make_ames()

6.1 Filter

We can use subsetting operations

amesdata[amesdata$Year_Sold == 2010 & amesdata$Mo_Sold == 1, ] 

## # A tibble: 26 × 81
##    MS_Sub…¹ MS_Zo…² Lot_F…³ Lot_A…⁴ Street Alley Lot_S…⁵ Land_…⁶ Utili…⁷ Lot_C…⁸
##    <fct>    <fct>     <dbl>   <int> <fct>  <fct> <fct>   <fct>   <fct>   <fct>  
##  1 One_Sto… Reside…      43    5005 Pave   No_A… Slight… HLS     AllPub  Inside 
##  2 One_Sto… Reside…     105   11751 Pave   No_A… Slight… Lvl     AllPub  Inside 
##  3 Split_F… Reside…      85   10625 Pave   No_A… Regular Lvl     AllPub  Inside 
##  4 Two_Sto… Floati…       0    7500 Pave   No_A… Regular Lvl     AllPub  Inside 
##  5 Two_Sto… Reside…     102   12858 Pave   No_A… Slight… Lvl     AllPub  Inside 
##  6 One_Sto… Reside…     100   18494 Pave   No_A… Slight… Lvl     AllPub  Corner 
##  7 One_Sto… Reside…      43    3203 Pave   No_A… Regular Lvl     AllPub  Inside 
##  8 Two_Sto… Reside…      60   17433 Pave   No_A… Modera… Lvl     AllPub  CulDSac
##  9 Two_Sto… Reside…      76   10142 Pave   No_A… Slight… Lvl     AllPub  Inside 
## 10 Two_Sto… Floati…      39    3515 Pave   Paved Regular Lvl     AllPub  Inside 
## # … with 16 more rows, 71 more variables: Land_Slope <fct>, Neighborhood <fct>,
## #   Condition_1 <fct>, Condition_2 <fct>, Bldg_Type <fct>, House_Style <fct>,
## #   Overall_Qual <fct>, Overall_Cond <fct>, Year_Built <int>,
## #   Year_Remod_Add <int>, Roof_Style <fct>, Roof_Matl <fct>,
## #   Exterior_1st <fct>, Exterior_2nd <fct>, Mas_Vnr_Type <fct>,
## #   Mas_Vnr_Area <dbl>, Exter_Qual <fct>, Exter_Cond <fct>, Foundation <fct>,
## #   Bsmt_Qual <fct>, Bsmt_Cond <fct>, Bsmt_Exposure <fct>, …
…
## 
## Attaching package: 'dplyr'

## The following objects are masked from 'package:stats':
## 
##     filter, lag

## The following objects are masked from 'package:base':
## 
##     intersect, setdiff, setequal, union

dplyr::filter(amesdata, Year_Sold == 2010, Mo_Sold == 1)

## # A tibble: 26 × 81
##    MS_Sub…¹ MS_Zo…² Lot_F…³ Lot_A…⁴ Street Alley Lot_S…⁵ Land_…⁶ Utili…⁷ Lot_C…⁸
##    <fct>    <fct>     <dbl>   <int> <fct>  <fct> <fct>   <fct>   <fct>   <fct>  
##  1 One_Sto… Reside…      43    5005 Pave   No_A… Slight… HLS     AllPub  Inside 
##  2 One_Sto… Reside…     105   11751 Pave   No_A… Slight… Lvl     AllPub  Inside 
##  3 Split_F… Reside…      85   10625 Pave   No_A… Regular Lvl     AllPub  Inside 
##  4 Two_Sto… Floati…       0    7500 Pave   No_A… Regular Lvl     AllPub  Inside 
##  5 Two_Sto… Reside…     102   12858 Pave   No_A… Slight… Lvl     AllPub  Inside 
##  6 One_Sto… Reside…     100   18494 Pave   No_A… Slight… Lvl     AllPub  Corner 
##  7 One_Sto… Reside…      43    3203 Pave   No_A… Regular Lvl     AllPub  Inside 
##  8 Two_Sto… Reside…      60   17433 Pave   No_A… Modera… Lvl     AllPub  CulDSac
##  9 Two_Sto… Reside…      76   10142 Pave   No_A… Slight… Lvl     AllPub  Inside 
## 10 Two_Sto… Floati…      39    3515 Pave   Paved Regular Lvl     AllPub  Inside 
## # … with 16 more rows, 71 more variables: Land_Slope <fct>, Neighborhood <fct>,
## #   Condition_1 <fct>, Condition_2 <fct>, Bldg_Type <fct>, House_Style <fct>,
## #   Overall_Qual <fct>, Overall_Cond <fct>, Year_Built <int>,
## #   Year_Remod_Add <int>, Roof_Style <fct>, Roof_Matl <fct>,
## #   Exterior_1st <fct>, Exterior_2nd <fct>, Mas_Vnr_Type <fct>,
## #   Mas_Vnr_Area <dbl>, Exter_Qual <fct>, Exter_Cond <fct>, Foundation <fct>,
## #   Bsmt_Qual <fct>, Bsmt_Cond <fct>, Bsmt_Exposure <fct>, …

6.2 Arrange

Let’s find the 10 houses with the highest sale prices by year

ar <- arrange(amesdata, Year_Sold, desc(Sale_Price))
ar

## # A tibble: 2,930 × 81
##    MS_Sub…¹ MS_Zo…² Lot_F…³ Lot_A…⁴ Street Alley Lot_S…⁵ Land_…⁶ Utili…⁷ Lot_C…⁸
##    <fct>    <fct>     <dbl>   <int> <fct>  <fct> <fct>   <fct>   <fct>   <fct>  
##  1 Two_Sto… Reside…     118   35760 Pave   No_A… Slight… Lvl     AllPub  CulDSac
##  2 Two_Sto… Reside…     114   17242 Pave   No_A… Slight… Lvl     AllPub  Inside 
##  3 Two_Sto… Reside…      85   16056 Pave   No_A… Slight… Lvl     AllPub  Inside 
##  4 Two_Sto… Reside…      60   18062 Pave   No_A… Slight… HLS     AllPub  CulDSac
##  5 Two_Sto… Reside…      82   16052 Pave   No_A… Slight… Lvl     AllPub  CulDSac
##  6 Two_and… Reside…      90   22950 Pave   No_A… Modera… Lvl     AllPub  Inside 
##  7 One_Sto… Reside…      90   18261 Pave   No_A… Slight… HLS     AllPub  Inside 
##  8 One_Sto… Reside…     107   13891 Pave   No_A… Regular Lvl     AllPub  Inside 
##  9 Two_Sto… Reside…      59   16023 Pave   No_A… Slight… HLS     AllPub  CulDSac
## 10 Two_Sto… Reside…      66   13682 Pave   No_A… Modera… HLS     AllPub  CulDSac
## # … with 2,920 more rows, 71 more variables: Land_Slope <fct>,
## #   Neighborhood <fct>, Condition_1 <fct>, Condition_2 <fct>, Bldg_Type <fct>,
## #   House_Style <fct>, Overall_Qual <fct>, Overall_Cond <fct>,
## #   Year_Built <int>, Year_Remod_Add <int>, Roof_Style <fct>, Roof_Matl <fct>,
## #   Exterior_1st <fct>, Exterior_2nd <fct>, Mas_Vnr_Type <fct>,
## #   Mas_Vnr_Area <dbl>, Exter_Qual <fct>, Exter_Cond <fct>, Foundation <fct>,
## #   Bsmt_Qual <fct>, Bsmt_Cond <fct>, Bsmt_Exposure <fct>, …
…
6.4 Select

How do we select variables based on some characteristics

amesdata %>% select(starts_with("Year"), Sale_Price)

## # A tibble: 2,930 × 4
##    Year_Built Year_Remod_Add Year_Sold Sale_Price
##         <int>          <int>     <int>      <int>
##  1       1960           1960      2010     215000
##  2       1961           1961      2010     105000
##  3       1958           1958      2010     172000
##  4       1968           1968      2010     244000
##  5       1997           1998      2010     189900
##  6       1998           1998      2010     195500
##  7       2001           2001      2010     213500
##  8       1992           1992      2010     191500
##  9       1995           1996      2010     236500
## 10       1999           1999      2010     189000
## # … with 2,920 more rows

amesdata %>% select(contains("Mo"))

## # A tibble: 2,930 × 2
##    Year_Remod_Add Mo_Sold
##             <int>   <int>
##  1           1960       5
##  2           1961       6
##  3           1958       6
##  4           1968       4
##  5           1998       3
##  6           1998       6
##  7           2001       4
##  8           1992       1
##  9           1996       3
## 10           1999       6
## # … with 2,920 more rows

6.5 Create & group_by()

We may want to create new variables as functions of the existing ones by mutate():

library(r02pro)
library(tidyverse)
amesdata %>% 
  select(Overall_Qual, Lot_Area, Sale_Price) %>%
  mutate(ave_price = Sale_Price/Lot_Area) 

## # A tibble: 2,930 × 4
##    Overall_Qual  Lot_Area Sale_Price ave_price
##    <fct>            <int>      <int>     <dbl>
##  1 Above_Average    31770     215000      6.77
##  2 Average          11622     105000      9.03
##  3 Above_Average    14267     172000     12.1 
##  4 Good             11160     244000     21.9 
##  5 Average          13830     189900     13.7 
##  6 Above_Average     9978     195500     19.6 
##  7 Very_Good         4920     213500     43.4 
##  8 Very_Good         5005     191500     38.3 
##  9 Very_Good         5389     236500     43.9 
## 10 Good              7500     189000     25.2 
## # … with 2,920 more rows
…
